…
## Quesiton 2

Lets dig in on the state with the 3rd most companies in the data set. Imagine you work for the state and are interested in how many people are employed by companies in different industries. Create a plot that shows the average and/or median employment by industry for companies in this state (only use cases with full data, use R's `complete.cases()` function.) In addition to this, your graph should show how variable the ranges are, and you should deal with outliers.


So based on our data-set we are looking at good ole NY

First let's sort out our dataset for NY only and by industry

```

> inc %>% filter(State=='NY') %>%filter(complete.cases(.)) %>% group_by(Industry)
# A tibble: 311 x 8
# Groups:   Industry [25]
    Rank Name                      Growth_Rate  Revenue Industry                     Employees City      State
   <int> <fct>                           <dbl>    <dbl> <fct>                            <int> <fct>     <fct>
 1    26 BeenVerified                     84.4 13700000 Consumer Products & Services        17 New York  NY   
 2    30 Sailthru                         73.2  8100000 Advertising & Marketing             79 New York  NY   
 3    37 YellowHammer                     67.4 18000000 Advertising & Marketing             27 New York  NY   
 4    38 Conductor                        67.0  7100000 Advertising & Marketing             89 New York  NY   
 5    48 Cinium Financial Services        53.6  5900000 Financial Services                  32 Rock Hill NY   
 6    70 33Across                         45.0 27900000 Advertising & Marketing             75 New York  NY   
 7    71 LiveIntent                       44.8  6900000 Advertising & Marketing             42 New York  NY   
 8   124 Quantum Networks                 29.4 11500000 Telecommunications                  28 New York  NY   
 9   126 Renegade Furniture Group         29.3  9800000 Retail                              17 Hewlett   NY   
10   153 Regal Wings                      25.1 15400000 Travel & Hospitality                42 Brooklyn  NY   
# ... with 301 more rows```
…
